{
  "competencies": [
    "Demonstrate time management",
    "Participate as a team member",
    "Use decision making and problem solving skills",
    "Apply learning strategies to new knowledge",
    "Exhibit creative thinking skills.",
    "Use a code repository.",
    "Use remote communication tools effectively."
  ],
  "courseNumber": 260,
  "courseDescription": "This course gets students hands on experience with actual clients.  Students will find a remote project either through a freelance site or through a company that works with Northwest Tech.  They will go through the process of analyzing the project, estimating time, and completing the project.  There is a strong focus on communicating remotely and using good time management skills.  All money made in the project will go to the student.  Once this project is complete, the student will have another project for their resume/portfolio along with a connection to the software development industry.",
  "courseOutline": [],
  "hours":135,
  "creditHours":3,
  "classTime": "Wednesday/Thursday"
}
