{
  "competencies": [
    "Develop a functional application.",
    "Demonstrate versioning and migration.",
    "Discuss common mistakes in data management.",
    "Integrate Core Data applications with the operating system.",
    "Sync data in applications across multiple instances.",
    "Explore safe ways to make Core Data applications multithreaded.",
    "Explore solutions for using Core Data across a distributed environment.",
    "Design a document-level properties storage system.",
    "Implement a MySQL Database",
    "Create SQL queries"
  ],
  "courseNumber": 220,
  "courseDescription": "This course covers the methods for persisting data on the iOS platform along with connecting to external databases. We will look at locally stored data in the form of plists, custom settings, and Core Data. We will also implement SQL and NoSQL databases and access them in our applications. There will be a strong focus on dependency inversion which allows us to swap out data sources with little effect on our previous code. By the end of this course, you will be able to implement the full stack of a database backend with an iOS or Web Frontend.",
  "courseOutline": [
    "Plists",
    "iOS Settings",
    "Core Data",
    "MySQL",
    "NoSQL",
    "Swapping Data"
  ],
  "hours":75,
  "creditHours":3,
  "classTime": "Tuesday"
}
